{
        "name": "sink-postgres-r2r-bson",
        "config": {
                "connector.class": "io.confluent.connect.jdbc.JdbcSinkConnector",
                "key.converter": "io.confluent.connect.avro.AvroConverter",
                "key.converter.schema.registry.url": "http://kafka-schema-registry:8081",
                "value.converter": "io.confluent.connect.avro.AvroConverter",
                "value.converter.schema.registry.url": "http://kafka-schema-registry:8081",
                "tasks.max": "1",
                "topics.regex": "test\\.\\w+",
                "connection.url": "jdbc:postgresql://db-postgres:5432/default",
                "connection.user": "admin",
                "connection.password": "admin",
                "dialect.name": "PostgreSqlDatabaseDialect",
                "table.name.format": "${topic}_r2r_bson",
                "auto.create": true,
                "auto.evolve": true,
                "insert.mode": "insert",
                "delete.enabled": true,
                "pk.mode": "record_key",
                "pk.fields": "id",
                "transforms": "route,torow",
                "transforms.route.type": "org.apache.kafka.connect.transforms.RegexRouter",
                "transforms.route.regex": "(\\w+)\\.(\\w+)",
                "transforms.route.replacement": "$1_$2",
                "transforms.torow.type": "com.github.kazanzhy.kafka.connect.smt.RecordValue2RowConverter",
                "transforms.torow.json.writer": "bson"
        }
}
